{
  "id": "ela_hub",
  "name": "ELA RHT Sensor hub proxy.",
  "description": "Ela-sensor hub device support",
  "author": "Xerussystems IoT",
  "homepage_url": "https://gitlab.com/xerussystem-iot/ela-hub-addon",
  "license_url": "https://gitlab.com/xerussystem-iot/ela-hub-addon/blob/master/LICENSE",
  "primary_type": "adapter",
  "packages": [
    {
      "architecture": "any",
      "language": {
        "name": "nodejs",
        "versions": [
          "any"
        ]
      },
      "version": "1.0.5",
      "url": "https://xerussystems-gateway-addons.s3.ap-south-1.amazonaws.com/ela_hub-1.0.5.tgz",
      "checksum": "ca1c88f86ef0b576955e67ab4f612bd6e38ac971051d6ab4e9625f7407c0a039",
      "api": {
        "min": 2,
        "max": 2
      },
      "gateway": {
        "min": "0.10.0",
        "max": "*"
      }
    },
    {
      "architecture": "any",
      "language": {
        "name": "nodejs",
        "versions": [
          "any"
        ]
      },
      "version": "1.0.6",
      "url": "https://xerussystems-gateway-addons.s3.ap-south-1.amazonaws.com/ela_hub-1.0.6.tgz",
      "checksum": "330864f68afb993d11b38c7f630636f9154c9c68237dec2d5a8ac5324ee3f5ee",
      "api": {
        "min": 2,
        "max": 2
      },
      "gateway": {
        "min": "0.10.0",
        "max": "*"
      }
    }
  ]
}
